**momomo's Fantasy Chess RPG Environment - Ruined City**
-----------------------------------------------------------------------------

Models(FBX in the pack)
-Verts: 40617
-Tris: 58880

Textures
-Diffuse map: 2048x2048-1, 512x512-1
-Lightmap: 1024x1024-1, 512x512-1



If you want to rebake light map,
you must activate 'Light' in the environment in the scene file.
and turn off Directional light_shd. 





Thank you for your purchase!
If you have any questions mail me at 32d.artist@gmail.com

▼Check out momomo's other Assets▼
https://assetstore.unity.com/publishers/35389