%YAML 1.1
%TAG !u! tag:unity3d.com,2011:
--- !u!114 &11400000
MonoBehaviour:
  m_ObjectHideFlags: 0
  m_CorrespondingSourceObject: {fileID: 0}
  m_PrefabInstance: {fileID: 0}
  m_PrefabAsset: {fileID: 0}
  m_GameObject: {fileID: 0}
  m_Enabled: 1
  m_EditorHideFlags: 0
  m_Script: {fileID: 11500000, guid: 17646482b0341324a8cdeb9cccd2f361, type: 3}
  m_Name: FireElement
  m_EditorClassIdentifier: 
  elementType: 0
  resistancesToElements:
    fireResistance:
      spellElement: 0
      resistance: 0.5
    waterResistance:
      spellElement: 1
      resistance: 1
    earthResistance:
      spellElement: 3
      resistance: 0.25
    windResistance:
      spellElement: 2
      resistance: 0.75
    forceResistance:
      spellElement: 8
      resistance: 0.7
